<?xml version="1.0" encoding="UTF-8" standalone="no"?>
<!-- Created with Inkscape (http://www.inkscape.org/) -->

<svg
   xmlns:osb="http://www.openswatchbook.org/uri/2009/osb"
   xmlns:dc="http://purl.org/dc/elements/1.1/"
   xmlns:cc="http://creativecommons.org/ns#"
   xmlns:rdf="http://www.w3.org/1999/02/22-rdf-syntax-ns#"
   xmlns:svg="http://www.w3.org/2000/svg"
   xmlns="http://www.w3.org/2000/svg"
   xmlns:sodipodi="http://sodipodi.sourceforge.net/DTD/sodipodi-0.dtd"
   xmlns:inkscape="http://www.inkscape.org/namespaces/inkscape"
   width="245.10966mm"
   height="70.487724mm"
   viewBox="0 0 245.10966 70.487724"
   version="1.1"
   id="svg27830"
   sodipodi:docname="middle.svg"
   inkscape:version="0.92.2 2405546, 2018-03-11">
  <defs
     id="defs27824">
    <linearGradient
       id="linearGradient33799"
       osb:paint="solid">
      <stop
         style="stop-color:#d866ff;stop-opacity:1;"
         offset="0"
         id="stop33797" />
    </linearGradient>
  </defs>
  <sodipodi:namedview
     id="base"
     pagecolor="#ffffff"
     bordercolor="#666666"
     borderopacity="1.0"
     inkscape:pageopacity="0.0"
     inkscape:pageshadow="2"
     inkscape:zoom="0.35"
     inkscape:cx="209.82019"
     inkscape:cy="-58.876631"
     inkscape:document-units="mm"
     inkscape:current-layer="layer1"
     showgrid="false"
     inkscape:window-width="1366"
     inkscape:window-height="709"
     inkscape:window-x="0"
     inkscape:window-y="0"
     inkscape:window-maximized="1"
     inkscape:object-nodes="false" />
  <metadata
     id="metadata27827">
    <rdf:RDF>
      <cc:Work
         rdf:about="">
        <dc:format>image/svg+xml</dc:format>
        <dc:type
           rdf:resource="http://purl.org/dc/dcmitype/StillImage" />
        <dc:title></dc:title>
      </cc:Work>
    </rdf:RDF>
  </metadata>
  <g
     inkscape:label="Layer 1"
     inkscape:groupmode="layer"
     id="layer1"
     transform="translate(14.290795,-9.954979)">
    <path
       style="opacity:1;fill:none;stroke:#0084c8;stroke-width:1.06900966;stroke-linecap:butt;stroke-linejoin:miter;stroke-miterlimit:4;stroke-dasharray:none;stroke-opacity:1"
       d="M -14.007574,21.186938 C 17.61613,40.945382 135.13312,114.64422 231.97855,10.452512"
       id="line"
       inkscape:connector-curvature="0"
       sodipodi:nodetypes="cc" />
    <path
       style="fill:#5c3566;fill-opacity:1;fill-rule:nonzero;stroke-width:0.14762114"
       inkscape:transform-center-x="-1.9238648"
       inkscape:transform-center-y="-0.039452804"
       d="m -5.4004181,43.311096 -0.8559423,-8.656079 -0.8559418,-8.656072 7.48348678,4.387224 7.48349602,4.387215 -6.627566,4.268857 z"
       id="path27834"
       inkscape:connector-curvature="0" />
    <path
       inkscape:connector-curvature="0"
       id="path32345"
       d="m 11.682932,52.677299 -1.349553,-8.65232 -1.3495524,-8.652312 7.6641364,3.919829 7.664119,3.919833 -6.314564,4.732482 z"
       inkscape:transform-center-y="0.27088525"
       inkscape:transform-center-x="-1.6550059"
       style="fill:#f57900;stroke-width:0.14762114" />
    <path
       style="fill:#008080;stroke-width:0.14762114"
       inkscape:transform-center-x="-1.4181127"
       inkscape:transform-center-y="0.55725244"
       d="m 28.858261,60.934076 -1.753355,-8.651003 -1.753376,-8.650993 7.761062,3.489619 7.761065,3.48962 -6.00771,5.161384 z"
       id="path32347"
       inkscape:connector-curvature="0" />
    <path
       inkscape:connector-curvature="0"
       id="path32349"
       d="m 47.416909,68.39529 -2.413309,-8.572146 -2.413286,-8.572139 7.886307,2.72664 7.886297,2.726649 -5.473,5.84551 z"
       inkscape:transform-center-y="1.0396151"
       inkscape:transform-center-x="-1.0198972"
       style="fill:#008000;stroke-width:0.14762114" />
    <path
       style="fill:#ff0066;stroke-width:0.1481595"
       inkscape:transform-center-x="-0.71241331"
       inkscape:transform-center-y="1.4756164"
       d="m 65.163016,74.180301 -2.886798,-8.516321 -2.886753,-8.516308 7.910813,2.044727 7.910809,2.04474 -5.024022,6.471585 z"
       id="path32351"
       inkscape:connector-curvature="0" />
    <path
       inkscape:connector-curvature="0"
       id="path32353"
       d="m 83.133569,78.259981 -3.264696,-8.342368 -3.264667,-8.342373 7.869484,1.280991 7.869515,1.280977 -4.60481,7.061389 z"
       inkscape:transform-center-y="1.926795"
       inkscape:transform-center-x="-0.44670689"
       style="fill:#d400aa;stroke-width:0.1481595" />
    <path
       style="fill:#680088;stroke-width:0.1481595"
       inkscape:transform-center-x="-0.11745226"
       inkscape:transform-center-y="2.3949724"
       d="m 102.59438,80.442706 -3.756805,-8.011992 -3.75678,-8.011996 7.865945,0.413533 7.86593,0.413543 -4.10915,7.598462 z"
       id="path32355"
       inkscape:connector-curvature="0" />
    <path
       inkscape:connector-curvature="0"
       id="path33920"
       d="m 122.21015,80.419544 -4.55965,-7.583886 -4.55961,-7.583894 7.86684,-0.396342 7.86681,-0.396331 -3.3072,7.980233 z"
       inkscape:transform-center-y="2.3958508"
       inkscape:transform-center-x="0.41747659"
       style="fill:#9c44b8;stroke-width:0.1481595" />
    <path
       style="fill:#480060;stroke-width:0.1481595"
       inkscape:transform-center-x="1.0975282"
       inkscape:transform-center-y="1.8290956"
       d="m 142.53254,77.986398 -5.51929,-6.916867 -5.51928,-6.91688 7.746,-1.429591 7.74598,-1.429578 -2.22671,8.346465 z"
       id="path33922"
       inkscape:connector-curvature="0" />
    <path
       inkscape:connector-curvature="0"
       id="path33924"
       d="m 163.72665,73.567332 -6.31685,-6.197022 -6.31684,-6.197036 7.51566,-2.357768 7.51564,-2.357755 -1.19882,8.5548 z"
       inkscape:transform-center-y="1.2797545"
       inkscape:transform-center-x="1.7060133"
       style="fill:#a458c0;stroke-width:0.1481595" />
    <path
       style="fill:#c08cd0;stroke-width:0.1481595"
       inkscape:transform-center-x="2.2459291"
       inkscape:transform-center-y="0.75536776"
       d="m 182.55272,66.293167 -6.97109,-5.450659 -6.97106,-5.450677 7.20436,-3.184567 7.20435,-3.184552 -0.23329,8.635237 z"
       id="path33926"
       inkscape:connector-curvature="0" />
    <path
       inkscape:connector-curvature="0"
       id="path33928"
       d="m 200.75413,56.702313 -7.63176,-4.479056 -7.63174,-4.479076 6.71894,-4.110958 6.71894,-4.110942 0.9128,8.590027 z"
       inkscape:transform-center-y="0.12270369"
       inkscape:transform-center-x="1.9353754"
       style="fill:#c898d8;stroke-width:0.1481595" />
    <path
       style="fill:#7c04a0;stroke-width:0.1481595"
       inkscape:transform-center-x="1.518826"
       inkscape:transform-center-y="-0.33835659"
       d="m 216.70453,45.838867 -8.0275,-3.723581 -8.02748,-3.723604 6.292,-4.738665 6.292,-4.738649 1.73547,8.462263 z"
       id="path33930"
       inkscape:connector-curvature="0" />
    <path
       inkscape:connector-curvature="0"
       id="path33932"
       d="m 232.72304,31.912636 -8.40275,-2.774804 -8.40274,-2.774828 5.70472,-5.431424 5.70473,-5.43141 2.698,8.206248 z"
       inkscape:transform-center-y="-0.0056541791"
       inkscape:transform-center-x="-0.076792996"
       style="fill:#8ae234;stroke-width:0.1481595" />
  </g>
</svg>
